[{
        "id": 1,
        "name": "JAVIER RIVAS ",
        "position": "Presidente",
        "description": "Soy Javi, tengo 40 años y llevo más de 20 trabajando con personas y colectivos en situaciones de vulnerabilidad o riesgo de ella. En la actualidad coordino equipos de intervención y programas sociales. Desde el primer día me acompaña la misma ilusión y ganas de contribuir a crear una sociedad mejor, con honestidad y emoción; ese es el objetivo de Abriendo Fronteras. Esta asociación es una apuesta por el rigor, la ecuanimidad y la convicción de que una comunidad solidaria y participativa puede afrontar cualquier reto.",
        "image": "/assets/team4.jpg"

    },
    {
        "id": 2,
        "name": "CRISTINA SÁNCHEZ ",
        "position": "Vicepresidenta",
        "description": "Mi nombre es Cristina y tengo 39 años. Soy pedagoga y orientadora familiar.  Estoy muy ilusionada por empezar este proyecto que espero también sintais como vuestro; porque es  a través de la participación ciudadana y del convencimiento de que si se cree en algo hay que intentarlo, como los cambios suceden. Bienvenid@s a Abriendo Fronteras",
        "image": "/assets/team3.jpg"

    },
    {
        "id": 3,
        "name": "LAURA CERROLAZA",
        "position": "Secretaria",
        "description": "Hola, soy Laura y tengo 39 años. Filóloga y profesora de español. No concibo mi vida sin las clases, sin esos estudiantes que nos enseñan tanto compartiendo sus propios aprendizajes. Desde que mi trabajo empezó a tener un factor más social, gracias a enseñar en diversos Centros de Acogida de Refugiados, no he podido concebirlo diferente. Formar parte de este precioso y necesario proyecto, Abriendo Fronteras, me regala poder hermanar mi profesión con lo más social. Humanidad sin caridad! Me encanta apreHender de la variedad, de lo diferente. Explorando nuevos mundos y continentes. Construyendo puentes entre gentes.",
        "image": "/assets/team1.jpg"

    },
    {
        "id": 4,
        "name": "ANTONELLO RONGA ",
        "position": "Tesorero",
        "description": "¡Hola! Soy Antonello,tengo 29 años y soy italiano. Politólogo y educador social, actualmente trabajo en un programa de acogida e integración de refugiados. Enamorado de la buena cocina (vegetariana), de mi gato y de la tecnología, he dedicado e invertido mi tiempo en buscar la manera de aportar mi granito de arena a este loco mundo en el que vivimos. Abriendo fronteras es justo esto: una locura, la apuesta de cinco compañ@s y amig@s para devolver la esperanza, la motivación y las ganas de seguir adelante a quienes han visto arrebatada su ilusión. Te has parado nunca a pensar: ¿Cuánto vale una sonrisa?.",
        "image": "/assets/team2.jpg"

    }
]